{
    "Cubo": {
        "checkpoints": [
            {
                "steps": 499938,
                "file_path": "results\\prueba4\\Cubo\\Cubo-499938.onnx",
                "reward": null,
                "creation_time": 1616771895.9578855
            },
            {
                "steps": 500002,
                "file_path": "results\\prueba4\\Cubo\\Cubo-500002.onnx",
                "reward": null,
                "creation_time": 1616771896.069987
            }
        ],
        "final_checkpoint": {
            "steps": 500002,
            "file_path": "results\\prueba4\\Cubo.onnx",
            "reward": null,
            "creation_time": 1616771896.069987
        }
    },
    "metadata": {
        "stats_format_version": "0.2.0",
        "mlagents_version": "0.25.0",
        "torch_version": "1.8.0+cpu"
    }
}