{
    "Cubo": {
        "checkpoints": [
            {
                "steps": 164453,
                "file_path": "results\\prueba11\\Cubo\\Cubo-164453.onnx",
                "reward": null,
                "creation_time": 1616799523.071653
            }
        ],
        "final_checkpoint": {
            "steps": 164453,
            "file_path": "results\\prueba11\\Cubo.onnx",
            "reward": null,
            "creation_time": 1616799523.071653
        }
    },
    "metadata": {
        "stats_format_version": "0.2.0",
        "mlagents_version": "0.25.0",
        "torch_version": "1.8.0+cpu"
    }
}