{
    "Cubo": {
        "checkpoints": [
            {
                "steps": 999997,
                "file_path": "results\\prueba5\\Cubo\\Cubo-999997.onnx",
                "reward": 0.10000000397364299,
                "creation_time": 1616775136.8308377
            },
            {
                "steps": 1499995,
                "file_path": "results\\prueba5\\Cubo\\Cubo-1499995.onnx",
                "reward": null,
                "creation_time": 1616776188.3052404
            },
            {
                "steps": 1999961,
                "file_path": "results\\prueba5\\Cubo\\Cubo-1999961.onnx",
                "reward": -1.699999988079071,
                "creation_time": 1616777196.8918097
            },
            {
                "steps": 2499982,
                "file_path": "results\\prueba5\\Cubo\\Cubo-2499982.onnx",
                "reward": 0.0,
                "creation_time": 1616778158.524631
            },
            {
                "steps": 2500814,
                "file_path": "results\\prueba5\\Cubo\\Cubo-2500814.onnx",
                "reward": 0.0,
                "creation_time": 1616778158.6937845
            }
        ],
        "final_checkpoint": {
            "steps": 2500814,
            "file_path": "results\\prueba5\\Cubo.onnx",
            "reward": 0.0,
            "creation_time": 1616778158.6937845
        }
    },
    "metadata": {
        "stats_format_version": "0.2.0",
        "mlagents_version": "0.25.0",
        "torch_version": "1.8.0+cpu"
    }
}