{
    "name": "root",
    "gauges": {
        "Cubo.Policy.Entropy.mean": {
            "value": 1.7894386053085327,
            "min": 1.7894386053085327,
            "max": 1.7894386053085327,
            "count": 1
        },
        "Cubo.Policy.Entropy.sum": {
            "value": 89566.7734375,
            "min": 89566.7734375,
            "max": 89566.7734375,
            "count": 1
        },
        "Cubo.Policy.ExtrinsicValueEstimate.mean": {
            "value": -0.002501443261280656,
            "min": -0.002501443261280656,
            "max": -0.002501443261280656,
            "count": 1
        },
        "Cubo.Policy.ExtrinsicValueEstimate.sum": {
            "value": -2.0386762619018555,
            "min": -2.0386762619018555,
            "max": -2.0386762619018555,
            "count": 1
        },
        "Cubo.Environment.EpisodeLength.mean": {
            "value": 839.728813559322,
            "min": 839.728813559322,
            "max": 839.728813559322,
            "count": 1
        },
        "Cubo.Environment.EpisodeLength.sum": {
            "value": 49544.0,
            "min": 49544.0,
            "max": 49544.0,
            "count": 1
        },
        "Cubo.Environment.CumulativeReward.mean": {
            "value": -1.6338982900320473,
            "min": -1.6338982900320473,
            "max": -1.6338982900320473,
            "count": 1
        },
        "Cubo.Environment.CumulativeReward.sum": {
            "value": -96.39999911189079,
            "min": -96.39999911189079,
            "max": -96.39999911189079,
            "count": 1
        },
        "Cubo.Policy.ExtrinsicReward.mean": {
            "value": -1.6338982900320473,
            "min": -1.6338982900320473,
            "max": -1.6338982900320473,
            "count": 1
        },
        "Cubo.Policy.ExtrinsicReward.sum": {
            "value": -96.39999911189079,
            "min": -96.39999911189079,
            "max": -96.39999911189079,
            "count": 1
        },
        "Cubo.Losses.PolicyLoss.mean": {
            "value": 0.020861394325038418,
            "min": 0.020861394325038418,
            "max": 0.020861394325038418,
            "count": 1
        },
        "Cubo.Losses.PolicyLoss.sum": {
            "value": 0.08344557730015367,
            "min": 0.08344557730015367,
            "max": 0.08344557730015367,
            "count": 1
        },
        "Cubo.Losses.ValueLoss.mean": {
            "value": 0.03496817192062736,
            "min": 0.03496817192062736,
            "max": 0.03496817192062736,
            "count": 1
        },
        "Cubo.Losses.ValueLoss.sum": {
            "value": 0.13987268768250943,
            "min": 0.13987268768250943,
            "max": 0.13987268768250943,
            "count": 1
        },
        "Cubo.Policy.LearningRate.mean": {
            "value": 0.00028459170513610006,
            "min": 0.00028459170513610006,
            "max": 0.00028459170513610006,
            "count": 1
        },
        "Cubo.Policy.LearningRate.sum": {
            "value": 0.0011383668205444003,
            "min": 0.0011383668205444003,
            "max": 0.0011383668205444003,
            "count": 1
        },
        "Cubo.Policy.Epsilon.mean": {
            "value": 0.19486389999999998,
            "min": 0.19486389999999998,
            "max": 0.19486389999999998,
            "count": 1
        },
        "Cubo.Policy.Epsilon.sum": {
            "value": 0.7794555999999999,
            "min": 0.7794555999999999,
            "max": 0.7794555999999999,
            "count": 1
        },
        "Cubo.Policy.Beta.mean": {
            "value": 0.00474370861,
            "min": 0.00474370861,
            "max": 0.00474370861,
            "count": 1
        },
        "Cubo.Policy.Beta.sum": {
            "value": 0.01897483444,
            "min": 0.01897483444,
            "max": 0.01897483444,
            "count": 1
        },
        "Cubo.IsTraining.mean": {
            "value": 1.0,
            "min": 1.0,
            "max": 1.0,
            "count": 1
        },
        "Cubo.IsTraining.sum": {
            "value": 1.0,
            "min": 1.0,
            "max": 1.0,
            "count": 1
        }
    },
    "metadata": {
        "timer_format_version": "0.1.0",
        "start_time_seconds": "1616783588",
        "python_version": "3.7.9 (tags/v3.7.9:13c94747c7, Aug 17 2020, 18:58:18) [MSC v.1900 64 bit (AMD64)]",
        "command_line_arguments": "E:\\2nDAMvi\\M17\\Unity Projects\\RunnerMachineLearning\\venv\\Scripts\\mlagents-learn --run-id=prueba7",
        "mlagents_version": "0.25.0",
        "mlagents_envs_version": "0.25.0",
        "communication_protocol_version": "1.5.0",
        "pytorch_version": "1.8.0+cpu",
        "numpy_version": "1.20.1",
        "end_time_seconds": "1616783826"
    },
    "total": 238.62372059999998,
    "count": 1,
    "self": 0.00316749999996091,
    "children": {
        "run_training.setup": {
            "total": 0.0903024,
            "count": 1,
            "self": 0.0903024
        },
        "TrainerController.start_learning": {
            "total": 238.5302507,
            "count": 1,
            "self": 0.9973272999991423,
            "children": {
                "TrainerController._reset_env": {
                    "total": 6.4032871,
                    "count": 1,
                    "self": 6.4032871
                },
                "TrainerController.advance": {
                    "total": 230.99671510000087,
                    "count": 55769,
                    "self": 0.5185076000007882,
                    "children": {
                        "env_step": {
                            "total": 230.47820750000008,
                            "count": 55769,
                            "self": 174.1281013000048,
                            "children": {
                                "SubprocessEnvManager._take_step": {
                                    "total": 55.77686579999853,
                                    "count": 55769,
                                    "self": 1.9086178999976084,
                                    "children": {
                                        "TorchPolicy.evaluate": {
                                            "total": 53.868247900000924,
                                            "count": 55767,
                                            "self": 10.928247500000317,
                                            "children": {
                                                "TorchPolicy.sample_actions": {
                                                    "total": 42.940000400000606,
                                                    "count": 55767,
                                                    "self": 42.940000400000606
                                                }
                                            }
                                        }
                                    }
                                },
                                "workers": {
                                    "total": 0.5732403999967435,
                                    "count": 55768,
                                    "self": 0.0,
                                    "children": {
                                        "worker_root": {
                                            "total": 191.8881521000054,
                                            "count": 55768,
                                            "is_parallel": true,
                                            "self": 93.60262620000454,
                                            "children": {
                                                "steps_from_proto": {
                                                    "total": 0.00031819999999971316,
                                                    "count": 1,
                                                    "is_parallel": true,
                                                    "self": 0.00017840000000024503,
                                                    "children": {
                                                        "_process_rank_one_or_two_observation": {
                                                            "total": 0.00013979999999946813,
                                                            "count": 2,
                                                            "is_parallel": true,
                                                            "self": 0.00013979999999946813
                                                        }
                                                    }
                                                },
                                                "UnityEnvironment.step": {
                                                    "total": 98.28520770000088,
                                                    "count": 55768,
                                                    "is_parallel": true,
                                                    "self": 2.9652862999983682,
                                                    "children": {
                                                        "UnityEnvironment._generate_step_input": {
                                                            "total": 2.558755199998962,
                                                            "count": 55768,
                                                            "is_parallel": true,
                                                            "self": 2.558755199998962
                                                        },
                                                        "communicator.exchange": {
                                                            "total": 81.53705039999959,
                                                            "count": 55768,
                                                            "is_parallel": true,
                                                            "self": 81.53705039999959
                                                        },
                                                        "steps_from_proto": {
                                                            "total": 11.224115800003966,
                                                            "count": 55766,
                                                            "is_parallel": true,
                                                            "self": 7.384956000004544,
                                                            "children": {
                                                                "_process_rank_one_or_two_observation": {
                                                                    "total": 3.8391597999994227,
                                                                    "count": 111532,
                                                                    "is_parallel": true,
                                                                    "self": 3.8391597999994227
                                                                }
                                                            }
                                                        }
                                                    }
                                                }
                                            }
                                        }
                                    }
                                }
                            }
                        }
                    }
                },
                "trainer_threads": {
                    "total": 3.340000000662258e-05,
                    "count": 1,
                    "self": 3.340000000662258e-05,
                    "children": {
                        "thread_root": {
                            "total": 0.0,
                            "count": 0,
                            "is_parallel": true,
                            "self": 0.0,
                            "children": {
                                "trainer_advance": {
                                    "total": 231.81491770000125,
                                    "count": 14613,
                                    "is_parallel": true,
                                    "self": 0.6070813000008286,
                                    "children": {
                                        "process_trajectory": {
                                            "total": 217.7379543000004,
                                            "count": 14613,
                                            "is_parallel": true,
                                            "self": 217.7379543000004
                                        },
                                        "_update_policy": {
                                            "total": 13.469882100000014,
                                            "count": 5,
                                            "is_parallel": true,
                                            "self": 8.341430300000006,
                                            "children": {
                                                "TorchPPOOptimizer.update": {
                                                    "total": 5.128451800000008,
                                                    "count": 150,
                                                    "is_parallel": true,
                                                    "self": 5.128451800000008
                                                }
                                            }
                                        }
                                    }
                                }
                            }
                        }
                    }
                },
                "TrainerController._save_models": {
                    "total": 0.13288779999999178,
                    "count": 1,
                    "self": 0.015136899999987463,
                    "children": {
                        "RLTrainer._checkpoint": {
                            "total": 0.11775090000000432,
                            "count": 1,
                            "self": 0.11775090000000432
                        }
                    }
                }
            }
        }
    }
}