{
    "Cubo": {
        "checkpoints": [
            {
                "steps": 499968,
                "file_path": "results\\prueba3\\Cubo\\Cubo-499968.onnx",
                "reward": null,
                "creation_time": 1616770803.6202006
            },
            {
                "steps": 500032,
                "file_path": "results\\prueba3\\Cubo\\Cubo-500032.onnx",
                "reward": null,
                "creation_time": 1616770803.702275
            }
        ],
        "final_checkpoint": {
            "steps": 500032,
            "file_path": "results\\prueba3\\Cubo.onnx",
            "reward": null,
            "creation_time": 1616770803.702275
        }
    },
    "metadata": {
        "stats_format_version": "0.2.0",
        "mlagents_version": "0.25.0",
        "torch_version": "1.8.0+cpu"
    }
}