{
    "Cubo": {
        "checkpoints": [
            {
                "steps": 60276,
                "file_path": "results\\pruebaclase1\\Cubo\\Cubo-60276.onnx",
                "reward": -0.02014925208554339,
                "creation_time": 1616684684.3014553
            }
        ],
        "final_checkpoint": {
            "steps": 60276,
            "file_path": "results\\pruebaclase1\\Cubo.onnx",
            "reward": -0.02014925208554339,
            "creation_time": 1616684684.3014553
        }
    },
    "metadata": {
        "stats_format_version": "0.2.0",
        "mlagents_version": "0.25.0",
        "torch_version": "1.8.0+cpu"
    }
}