{
    "Cubo": {
        "checkpoints": [
            {
                "steps": 139165,
                "file_path": "results\\pruebabuena1\\Cubo\\Cubo-139165.onnx",
                "reward": -0.44999999925494194,
                "creation_time": 1616677413.8333225
            }
        ],
        "final_checkpoint": {
            "steps": 139165,
            "file_path": "results\\pruebabuena1\\Cubo.onnx",
            "reward": -0.44999999925494194,
            "creation_time": 1616677413.8333225
        }
    },
    "metadata": {
        "stats_format_version": "0.2.0",
        "mlagents_version": "0.25.0",
        "torch_version": "1.8.0+cpu"
    }
}