{
    "name": "root",
    "metadata": {
        "timer_format_version": "0.1.0",
        "start_time_seconds": "1616676790",
        "python_version": "3.7.9 (tags/v3.7.9:13c94747c7, Aug 17 2020, 18:58:18) [MSC v.1900 64 bit (AMD64)]",
        "command_line_arguments": "E:\\2nDAMvi\\M17\\Unity Projects\\RunnerMachineLearning\\venv\\Scripts\\mlagents-learn --force",
        "mlagents_version": "0.25.0",
        "mlagents_envs_version": "0.25.0",
        "communication_protocol_version": "1.5.0",
        "pytorch_version": "1.8.0+cpu",
        "numpy_version": "1.20.1",
        "end_time_seconds": "1616676933"
    },
    "total": 142.1967055,
    "count": 1,
    "self": 0.0030405000000257587,
    "children": {
        "run_training.setup": {
            "total": 0.32296579999999997,
            "count": 1,
            "self": 0.32296579999999997
        },
        "TrainerController.start_learning": {
            "total": 141.8706992,
            "count": 1,
            "self": 0.6976883000008343,
            "children": {
                "TrainerController._reset_env": {
                    "total": 5.3972076,
                    "count": 1,
                    "self": 5.3972076
                },
                "TrainerController.advance": {
                    "total": 135.64671989999914,
                    "count": 43534,
                    "self": 0.3699325999973553,
                    "children": {
                        "env_step": {
                            "total": 135.27678730000179,
                            "count": 43534,
                            "self": 92.71794779999993,
                            "children": {
                                "SubprocessEnvManager._take_step": {
                                    "total": 42.16785050000002,
                                    "count": 43534,
                                    "self": 1.4204616999984125,
                                    "children": {
                                        "TorchPolicy.evaluate": {
                                            "total": 40.74738880000161,
                                            "count": 43534,
                                            "self": 7.831656400000803,
                                            "children": {
                                                "TorchPolicy.sample_actions": {
                                                    "total": 32.915732400000806,
                                                    "count": 43534,
                                                    "self": 32.915732400000806
                                                }
                                            }
                                        }
                                    }
                                },
                                "workers": {
                                    "total": 0.3909890000018388,
                                    "count": 43533,
                                    "self": 0.0,
                                    "children": {
                                        "worker_root": {
                                            "total": 135.7323262999996,
                                            "count": 43533,
                                            "is_parallel": true,
                                            "self": 69.78578259999887,
                                            "children": {
                                                "steps_from_proto": {
                                                    "total": 0.0002904999999993052,
                                                    "count": 1,
                                                    "is_parallel": true,
                                                    "self": 0.00015629999999955402,
                                                    "children": {
                                                        "_process_rank_one_or_two_observation": {
                                                            "total": 0.00013419999999975118,
                                                            "count": 2,
                                                            "is_parallel": true,
                                                            "self": 0.00013419999999975118
                                                        }
                                                    }
                                                },
                                                "UnityEnvironment.step": {
                                                    "total": 65.94625320000074,
                                                    "count": 43533,
                                                    "is_parallel": true,
                                                    "self": 2.148378499999822,
                                                    "children": {
                                                        "UnityEnvironment._generate_step_input": {
                                                            "total": 1.8639979000000784,
                                                            "count": 43533,
                                                            "is_parallel": true,
                                                            "self": 1.8639979000000784
                                                        },
                                                        "communicator.exchange": {
                                                            "total": 54.016392300000746,
                                                            "count": 43533,
                                                            "is_parallel": true,
                                                            "self": 54.016392300000746
                                                        },
                                                        "steps_from_proto": {
                                                            "total": 7.9174845000000955,
                                                            "count": 43533,
                                                            "is_parallel": true,
                                                            "self": 5.345535300001015,
                                                            "children": {
                                                                "_process_rank_one_or_two_observation": {
                                                                    "total": 2.5719491999990804,
                                                                    "count": 87066,
                                                                    "is_parallel": true,
                                                                    "self": 2.5719491999990804
                                                                }
                                                            }
                                                        }
                                                    }
                                                }
                                            }
                                        }
                                    }
                                }
                            }
                        }
                    }
                },
                "trainer_threads": {
                    "total": 2.2200000017846833e-05,
                    "count": 1,
                    "self": 2.2200000017846833e-05,
                    "children": {
                        "thread_root": {
                            "total": 0.0,
                            "count": 0,
                            "is_parallel": true,
                            "self": 0.0,
                            "children": {
                                "trainer_advance": {
                                    "total": 136.2574379999994,
                                    "count": 8666,
                                    "is_parallel": true,
                                    "self": 0.30001620000012963,
                                    "children": {
                                        "process_trajectory": {
                                            "total": 125.73846469999931,
                                            "count": 8666,
                                            "is_parallel": true,
                                            "self": 125.73846469999931
                                        },
                                        "_update_policy": {
                                            "total": 10.218957099999976,
                                            "count": 4,
                                            "is_parallel": true,
                                            "self": 6.365545699999949,
                                            "children": {
                                                "TorchPPOOptimizer.update": {
                                                    "total": 3.8534114000000272,
                                                    "count": 120,
                                                    "is_parallel": true,
                                                    "self": 3.8534114000000272
                                                }
                                            }
                                        }
                                    }
                                }
                            }
                        }
                    }
                },
                "TrainerController._save_models": {
                    "total": 0.12906119999999532,
                    "count": 1,
                    "self": 0.013027099999987968,
                    "children": {
                        "RLTrainer._checkpoint": {
                            "total": 0.11603410000000736,
                            "count": 1,
                            "self": 0.11603410000000736
                        }
                    }
                }
            }
        }
    }
}