{
    "Cubo": {
        "checkpoints": [
            {
                "steps": 43492,
                "file_path": "results\\ppo\\Cubo\\Cubo-43492.onnx",
                "reward": -0.15925925390587914,
                "creation_time": 1616676933.1356347
            }
        ],
        "final_checkpoint": {
            "steps": 43492,
            "file_path": "results\\ppo\\Cubo.onnx",
            "reward": -0.15925925390587914,
            "creation_time": 1616676933.1356347
        }
    },
    "metadata": {
        "stats_format_version": "0.2.0",
        "mlagents_version": "0.25.0",
        "torch_version": "1.8.0+cpu"
    }
}