{
    "Cubo": {
        "checkpoints": [
            {
                "steps": 79845,
                "file_path": "results\\prueba6\\Cubo\\Cubo-79845.onnx",
                "reward": 0.9000000134110451,
                "creation_time": 1616783091.2725425
            }
        ],
        "final_checkpoint": {
            "steps": 79845,
            "file_path": "results\\prueba6\\Cubo.onnx",
            "reward": 0.9000000134110451,
            "creation_time": 1616783091.2725425
        }
    },
    "metadata": {
        "stats_format_version": "0.2.0",
        "mlagents_version": "0.25.0",
        "torch_version": "1.8.0+cpu"
    }
}